210905094_Harshit_DSD A1/lab 9/q2_tb.vcd
$date
	Mon Oct 31 11:06:39 2022
$end
$version
	Icarus Verilog
$end
$timescale
	1ns
$end
$scope module q2_tb $end
$var wire 1 ! H $end
$var wire 1 " G $end
$var wire 1 # F $end
$var reg 1 $ E $end
$var reg 4 % i [3:0] $end
$scope module q2 $end
$var wire 1 $ E $end
$var wire 1 # F $end
$var wire 1 " G $end
$var wire 1 ! H $end
$var wire 4 & i [3:0] $end
$var wire 4 ' x [3:0] $end
$var wire 16 ( c [15:0] $end
$scope module stage0 $end
$var wire 1 $ En $end
$var wire 2 ) I [1:0] $end
$var reg 4 * f [3:0] $end
$upscope $end
$scope module stage1 $end
$var wire 1 + En $end
$var wire 2 , I [1:0] $end
$var reg 4 - f [3:0] $end
$upscope $end
$scope module stage2 $end
$var wire 1 . En $end
$var wire 2 / I [1:0] $end
$var reg 4 0 f [3:0] $end
$upscope $end
$scope module stage3 $end
$var wire 1 1 En $end
$var wire 2 2 I [1:0] $end
$var reg 4 3 f [3:0] $end
$upscope $end
$scope module stage4 $end
$var wire 1 4 En $end
$var wire 2 5 I [1:0] $end
$var reg 4 6 f [3:0] $end
$upscope $end
$upscope $end
$upscope $end
$enddefinitions $end
#0
$dumpvars
b0 6
b0 5
04
b0 3
b0 2
01
b0 0
b0 /
0.
b1 -
b0 ,
1+
b1 *
b0 )
b1 (
b1 '
b0 &
b0 %
1$
0#
0"
1!
$end
#20
b10 (
b10 -
b1 ,
b1 /
b1 2
b1 5
b1 %
b1 &
#40
0!
1"
b100 (
b100 -
b10 ,
b10 /
b10 2
b10 5
b10 %
b10 &
#60
1#
1!
b1000 (
b1000 -
b11 ,
b11 /
b11 2
b11 5
b11 %
b11 &
#80
0#
b1 0
0"
0!
1.
0+
b10 '
b10 *
b10000 (
b0 -
b1 )
b0 ,
b0 /
b0 2
b0 5
b100 %
b100 &
#100
b100000 (
b10 0
b1 ,
b1 /
b1 2
b1 5
b101 %
b101 &
#120
1#
b1000000 (
b100 0
b10 ,
b10 /
b10 2
b10 5
b110 %
b110 &
#140
1!
1#
b10000000 (
b1000 0
b11 ,
b11 /
b11 2
b11 5
b111 %
b111 &
#160
0#
0!
b1 3
11
0.
b100 '
b100 *
b100000000 (
b0 0
b10 )
b0 ,
b0 /
b0 2
b0 5
b1000 %
b1000 &
#180
b1000000000 (
b10 3
b1 ,
b1 /
b1 2
b1 5
b1001 %
b1001 &
#200
1#
1"
b10000000000 (
b100 3
b10 ,
b10 /
b10 2
b10 5
b1010 %
b1010 &
#220
0"
b100000000000 (
b1000 3
b11 ,
b11 /
b11 2
b11 5
b1011 %
b1011 &
#240
0#
b1 6
14
01
b1000 '
b1000 *
b1000000000000 (
b0 3
b11 )
b0 ,
b0 /
b0 2
b0 5
b1100 %
b1100 &
#260
b10000000000000 (
b10 6
b1 ,
b1 /
b1 2
b1 5
b1101 %
b1101 &
#280
1!
1"
1#
b100000000000000 (
b100 6
b10 ,
b10 /
b10 2
b10 5
b1110 %
b1110 &
#300
0"
0#
b1000000000000000 (
b1000 6
b11 ,
b11 /
b11 2
b11 5
b1111 %
b1111 &
